<?xml version="1.0" encoding="UTF-8" standalone="no"?>
<!DOCTYPE svg PUBLIC "-//W3C//DTD SVG 1.1//EN"
 "http://www.w3.org/Graphics/SVG/1.1/DTD/svg11.dtd">
<!-- Generated by graphviz version 2.30.1 (20130221.2233)
 -->
<!-- Title: %3 Pages: 1 -->
<svg width="278pt" height="44pt"
 viewBox="0.00 0.00 278.00 44.00" xmlns="http://www.w3.org/2000/svg" xmlns:xlink="http://www.w3.org/1999/xlink">
<g id="graph0" class="graph" transform="scale(1 1) rotate(0) translate(4 40)">
<title>%3</title>
<polygon fill="white" stroke="white" points="-4,5 -4,-40 275,-40 275,5 -4,5"/>
<!-- Y_1 -->
<g id="node1" class="node"><title>Y_1</title>
<ellipse fill="none" stroke="black" cx="27" cy="-18" rx="27" ry="18"/>
<text text-anchor="middle" x="27" y="-14.3" font-family="Times,serif" font-size="14.00">Y_1</text>
</g>
<!-- Y_2 -->
<g id="node2" class="node"><title>Y_2</title>
<ellipse fill="none" stroke="black" cx="99" cy="-18" rx="27" ry="18"/>
<text text-anchor="middle" x="99" y="-14.3" font-family="Times,serif" font-size="14.00">Y_2</text>
</g>
<!-- Y_1&#45;&#45;Y_2 -->
<g id="edge1" class="edge"><title>Y_1&#45;&#45;Y_2</title>
<path fill="none" stroke="black" d="M54.2201,-18C59.9546,-18 66.0055,-18 71.7414,-18"/>
</g>
<!-- Y_4 -->
<g id="node4" class="node"><title>Y_4</title>
<ellipse fill="none" stroke="black" cx="243" cy="-18" rx="27" ry="18"/>
<text text-anchor="middle" x="243" y="-14.3" font-family="Times,serif" font-size="14.00">Y_4</text>
</g>
<!-- Y_1&#45;&#45;Y_4 -->
<g id="edge4" class="edge"><title>Y_1&#45;&#45;Y_4</title>
<path fill="none" stroke="black" d="M54.3565,-18C95.9051,-18 174.449,-18 215.866,-18"/>
</g>
<!-- Y_3 -->
<g id="node3" class="node"><title>Y_3</title>
<ellipse fill="none" stroke="black" cx="171" cy="-18" rx="27" ry="18"/>
<text text-anchor="middle" x="171" y="-14.3" font-family="Times,serif" font-size="14.00">Y_3</text>
</g>
<!-- Y_2&#45;&#45;Y_3 -->
<g id="edge2" class="edge"><title>Y_2&#45;&#45;Y_3</title>
<path fill="none" stroke="black" d="M126.22,-18C131.955,-18 138.006,-18 143.741,-18"/>
</g>
<!-- Y_2&#45;&#45;Y_4 -->
<g id="edge5" class="edge"><title>Y_2&#45;&#45;Y_4</title>
<path fill="none" stroke="black" d="M126.085,-18C151.667,-18 189.845,-18 215.547,-18"/>
</g>
<!-- Y_3&#45;&#45;Y_4 -->
<g id="edge3" class="edge"><title>Y_3&#45;&#45;Y_4</title>
<path fill="none" stroke="black" d="M196.587,-24.4925C203.378,-24.8372 210.709,-24.8358 217.495,-24.4883"/>
</g>
<!-- Y_3&#45;&#45;Y_4 -->
<g id="edge6" class="edge"><title>Y_3&#45;&#45;Y_4</title>
<path fill="none" stroke="black" d="M196.587,-11.5075C203.378,-11.1628 210.709,-11.1642 217.495,-11.5117"/>
</g>
</g>
</svg>
